ST 558 Homework 8
…
# split the data into a 75/25 training/test split, stratify the split by seasons
bike_split <- initial_split(bike_data, prop = 0.75, strata = season)

# save the 75% split as training
bike_train <- training(bike_split)

# save the 25% split as testing
bike_test <- testing(bike_split)

# view the training and testing sets
bike_train

# A tibble: 263 × 12
# Groups:   date, season [263]
   date       season holiday    bike_count rainfall snowfall mean_temp
   <date>     <fct>  <fct>           <dbl>    <dbl>    <dbl>     <dbl>
 1 2018-09-01 Autumn No Holiday      26010      0          0      25.5
 2 2018-09-02 Autumn No Holiday      26881      0          0      25.0
 3 2018-09-03 Autumn No Holiday      10802     34.5        0      23.6
 4 2018-09-05 Autumn No Holiday      31114      0          0      23.8
 5 2018-09-08 Autumn No Holiday      29813      0          0      21.7
 6 2018-09-09 Autumn No Holiday      28354      0          0      22.0
 7 2018-09-11 Autumn No Holiday      31694      0          0      21.6
 8 2018-09-12 Autumn No Holiday      31809      0          0      22.5
 9 2018-09-13 Autumn No Holiday      30991      0          0      23.4
10 2018-09-14 Autumn No Holiday      28199      0.5        0      23.5
# ℹ 253 more rows
# ℹ 5 more variables: mean_humidity <dbl>, mean_wind_speed <dbl>,
#   mean_visibility <dbl>, mean_dew_point <dbl>, mean_solar_rad <dbl>

bike_test

# A tibble: 90 × 12
# Groups:   date, season [90]
   date       season holiday    bike_count rainfall snowfall mean_temp
   <date>     <fct>  <fct>           <dbl>    <dbl>    <dbl>     <dbl>
 1 2017-12-04 Winter No Holiday       8729      0.1      0      -0.304
 2 2017-12-14 Winter No Holiday       6398      0        0      -6.87 
 3 2017-12-15 Winter No Holiday       7198      0        0      -3.28 
 4 2017-12-18 Winter No Holiday       2620      3.4     59.7    -1.97 
 5 2017-12-20 Winter No Holiday       4568      0.2     48.3    -4.29 
 6 2017-12-22 Winter Holiday          7184      0        7.7     2.76 
 7 2017-12-24 Winter Holiday          2014     20        0       3.46 
 8 2017-12-25 Winter Holiday          3966      0        0      -2.09 
 9 2017-12-29 Winter No Holiday       7663      0        0       2.20 
10 2018-01-03 Winter No Holiday       6512      0        0      -4.48 
# ℹ 80 more rows
# ℹ 5 more variables: mean_humidity <dbl>, mean_wind_speed <dbl>,
#   mean_visibility <dbl>, mean_dew_point <dbl>, mean_solar_rad <dbl>
…
# save the results in folds
folds <- get_cv_splits(bike_train, 10)

# view the 10 fold CV
folds

[[1]]
# A tibble: 26 × 12
# Groups:   date, season [26]
   date       season holiday    bike_count rainfall snowfall mean_temp
   <date>     <fct>  <fct>           <dbl>    <dbl>    <dbl>     <dbl>
 1 2018-03-29 Spring No Holiday      17450      0        0       15.5 
 2 2018-05-23 Spring No Holiday      27674     10        0       17.5 
 3 2018-01-19 Winter No Holiday       7472      0        0        1.05
 4 2018-03-13 Spring No Holiday      15963      0        0       11.6 
 5 2018-04-01 Spring No Holiday      17388      0        0       15.2 
 6 2018-04-09 Spring No Holiday      19082      0        0        7.48
 7 2017-12-12 Winter No Holiday       5496      0        0       -9.47
 8 2018-01-09 Winter No Holiday       5500      0       10.8     -3.87
 9 2017-12-16 Winter No Holiday       4632      0        0       -5.29
10 2018-09-03 Autumn No Holiday      10802     34.5      0       23.6 
# ℹ 16 more rows
# ℹ 5 more variables: mean_humidity <dbl>, mean_wind_speed <dbl>,
#   mean_visibility <dbl>, mean_dew_point <dbl>, mean_solar_rad <dbl>

[[2]]
# A tibble: 26 × 12
# Groups:   date, season [26]
   date       season holiday    bike_count rainfall snowfall mean_temp
   <date>     <fct>  <fct>           <dbl>    <dbl>    <dbl>     <dbl>
 1 2018-08-26 Summer No Holiday      19310      2        0       23.3 
 2 2018-03-12 Spring No Holiday      13339      0        0        7.79
 3 2018-09-27 Autumn No Holiday      30789      0        0       18.8 
 4 2018-01-24 Winter No Holiday       3154      0       19.7    -14.1 
 5 2018-07-01 Summer No Holiday       3231     81        0       22.0 
 6 2018-03-19 Spring No Holiday       8968      1.5      0        8.02
 7 2018-09-02 Autumn No Holiday      26881      0        0       25.0 
 8 2018-03-27 Spring No Holiday      14710      0        0       13.1 
 9 2018-06-27 Summer No Holiday      29755      1        0       22.2 
10 2018-03-06 Spring No Holiday      12003      0        0        4.29
# ℹ 16 more rows
# ℹ 5 more variables: mean_humidity <dbl>, mean_wind_speed <dbl>,
#   mean_visibility <dbl>, mean_dew_point <dbl>, mean_solar_rad <dbl>

[[3]]
# A tibble: 26 × 12
# Groups:   date, season [26]
   date       season holiday    bike_count rainfall snowfall mean_temp
   <date>     <fct>  <fct>           <dbl>    <dbl>    <dbl>     <dbl>
 1 2018-04-29 Spring No Holiday      25349        0      0       15.9 
 2 2018-04-08 Spring No Holiday       6666        3      0        3.81
 3 2018-11-13 Autumn No Holiday      21992        0      0        8.76
 4 2018-04-13 Spring No Holiday      23240        0      0       14.3 
 5 2018-04-14 Spring No Holiday       6980        9      0        9.59
 6 2018-09-11 Autumn No Holiday      31694        0      0       21.6 
 7 2018-01-29 Winter No Holiday       4088        0      0       -8.52
 8 2018-11-14 Autumn No Holiday      22707        0      0        9.70
 9 2018-01-26 Winter No Holiday       2931        0     10.3    -14.7 
10 2018-02-05 Winter No Holiday       3932        0      0       -9.4 
# ℹ 16 more rows
# ℹ 5 more variables: mean_humidity <dbl>, mean_wind_speed <dbl>,
#   mean_visibility <dbl>, mean_dew_point <dbl>, mean_solar_rad <dbl>

[[4]]
# A tibble: 26 × 12
# Groups:   date, season [26]
   date       season holiday    bike_count rainfall snowfall mean_temp
   <date>     <fct>  <fct>           <dbl>    <dbl>    <dbl>     <dbl>
 1 2018-07-06 Summer No Holiday      33676      0        0       24.1 
 2 2018-02-23 Winter No Holiday       5797      4.1     44.7      3.95
 3 2017-12-26 Winter No Holiday       5605      0        0       -3.27
 4 2018-11-16 Autumn No Holiday      20660      0        0        9.01
 5 2018-04-10 Spring No Holiday      16696      5        0       14.7 
 6 2018-10-05 Autumn No Holiday       4522     35.5      0       17.1 
 7 2018-10-29 Autumn No Holiday      19877      0        0        7.40
 8 2018-07-18 Summer No Holiday      27896      0        0       28.2 
 9 2018-09-25 Autumn Holiday         23350      0        0       17.5 
10 2018-05-12 Spring No Holiday       3034     31.5      0       14.2 
# ℹ 16 more rows
# ℹ 5 more variables: mean_humidity <dbl>, mean_wind_speed <dbl>,
#   mean_visibility <dbl>, mean_dew_point <dbl>, mean_solar_rad <dbl>

[[5]]
# A tibble: 26 × 12
# Groups:   date, season [26]
   date       season holiday    bike_count rainfall snowfall mean_temp
   <date>     <fct>  <fct>           <dbl>    <dbl>    <dbl>     <dbl>
 1 2018-05-19 Spring No Holiday      30994      0          0     17.3 
 2 2018-07-07 Summer No Holiday      31076      0          0     23.8 
 3 2018-08-21 Summer No Holiday      25133      5          0     26.8 
 4 2018-05-01 Spring Holiday         26820      0          0     20.3 
 5 2018-10-01 Autumn No Holiday      27909      0          0     15.4 
 6 2018-06-13 Summer No Holiday      36149      0          0     22.0 
 7 2018-03-20 Spring No Holiday      11515      0          0      5.04
 8 2018-05-28 Spring No Holiday      31020      0          0     22.0 
 9 2018-11-27 Autumn No Holiday      16282      0          0      7.07
10 2018-10-28 Autumn No Holiday      11589      5.5        0      8.41
# ℹ 16 more rows
# ℹ 5 more variables: mean_humidity <dbl>, mean_wind_speed <dbl>,
#   mean_visibility <dbl>, mean_dew_point <dbl>, mean_solar_rad <dbl>

[[6]]
# A tibble: 26 × 12
# Groups:   date, season [26]
   date       season holiday    bike_count rainfall snowfall mean_temp
   <date>     <fct>  <fct>           <dbl>    <dbl>    <dbl>     <dbl>
 1 2018-06-14 Summer No Holiday      23818     29          0     21.7 
 2 2018-09-05 Autumn No Holiday      31114      0          0     23.8 
 3 2018-03-05 Spring No Holiday       8597     12.5        0      6.04
 4 2018-04-04 Spring No Holiday      19995     18.6        0     13.7 
 5 2018-08-07 Summer No Holiday      23806      0          0     30.5 
 6 2018-10-06 Autumn No Holiday      16037     35.5        0     18.6 
 7 2018-03-03 Spring No Holiday      12191      0          0      7.18
 8 2018-06-10 Summer No Holiday      29342      0.5        0     21.3 
 9 2018-02-15 Winter Holiday          3484      0          0     -0.45
10 2018-03-28 Spring No Holiday      17295      0          0     14.0 
# ℹ 16 more rows
# ℹ 5 more variables: mean_humidity <dbl>, mean_wind_speed <dbl>,
#   mean_visibility <dbl>, mean_dew_point <dbl>, mean_solar_rad <dbl>

[[7]]
# A tibble: 26 × 12
# Groups:   date, season [26]
   date       season holiday    bike_count rainfall snowfall mean_temp
   <date>     <fct>  <fct>           <dbl>    <dbl>    <dbl>     <dbl>
 1 2018-01-27 Winter No Holiday       2693        0      4.4   -10.4  
 2 2018-10-27 Autumn No Holiday      18398        0      0       8.91 
 3 2018-02-20 Winter No Holiday       7955        0      0       1.10 
 4 2018-09-12 Autumn No Holiday      31809        0      0      22.5  
 5 2018-07-26 Summer No Holiday      24915        0      0      30.0  
 6 2017-12-21 Winter No Holiday       5734        0     38.9    -0.846
 7 2018-06-11 Summer No Holiday      24832        4      0      20.6  
 8 2018-01-11 Winter No Holiday       4017        0      0     -10.8  
 9 2018-04-05 Spring No Holiday       2596       10      0       7.80 
10 2018-11-26 Autumn No Holiday      17162        0      2.9     6.32 
# ℹ 16 more rows
# ℹ 5 more variables: mean_humidity <dbl>, mean_wind_speed <dbl>,
#   mean_visibility <dbl>, mean_dew_point <dbl>, mean_solar_rad <dbl>

[[8]]
# A tibble: 26 × 12
# Groups:   date, season [26]
   date       season holiday    bike_count rainfall snowfall mean_temp
   <date>     <fct>  <fct>           <dbl>    <dbl>    <dbl>     <dbl>
 1 2018-09-22 Autumn No Holiday      26398      6.5      0      21.0  
 2 2017-12-30 Winter No Holiday       4027      0.5      0       1.31 
 3 2018-02-25 Winter No Holiday       6500      0        0       1.92 
 4 2018-02-21 Winter No Holiday       7491      0        0      -0.917
 5 2018-02-14 Winter No Holiday       6771      0        0       3.60 
 6 2018-02-24 Winter No Holiday       6356      0        0       2.76 
 7 2017-12-23 Winter No Holiday       6624      0        0       6.13 
 8 2018-10-03 Autumn Holiday         30349      0        0      17.2  
 9 2018-11-25 Autumn No Holiday      11212      0       41.4     4.86 
10 2018-02-04 Winter No Holiday       2487      0        0      -9.52 
# ℹ 16 more rows
# ℹ 5 more variables: mean_humidity <dbl>, mean_wind_speed <dbl>,
#   mean_visibility <dbl>, mean_dew_point <dbl>, mean_solar_rad <dbl>

[[9]]
# A tibble: 26 × 12
# Groups:   date, season [26]
   date       season holiday    bike_count rainfall snowfall mean_temp
   <date>     <fct>  <fct>           <dbl>    <dbl>    <dbl>     <dbl>
 1 2018-08-08 Summer No Holiday      23880        0        0     30.9 
 2 2018-07-19 Summer No Holiday      27820        0        0     28.6 
 3 2018-06-02 Summer No Holiday      30693        0        0     23.5 
 4 2018-04-27 Spring No Holiday      25861        0        0     15.6 
 5 2018-04-03 Spring No Holiday      21015        0        0     18.0 
 6 2018-02-02 Winter No Holiday       5954        0        0     -2.65
 7 2018-07-25 Summer No Holiday      25918        0        0     30.3 
 8 2018-04-20 Spring No Holiday      22593        0        0     18.1 
 9 2018-10-21 Autumn No Holiday      23906        0        0     13.4 
10 2018-10-30 Autumn No Holiday      20822        0        0      5.89
# ℹ 16 more rows
# ℹ 5 more variables: mean_humidity <dbl>, mean_wind_speed <dbl>,
#   mean_visibility <dbl>, mean_dew_point <dbl>, mean_solar_rad <dbl>

[[10]]
# A tibble: 29 × 12
# Groups:   date, season [29]
   date       season holiday    bike_count rainfall snowfall mean_temp
   <date>     <fct>  <fct>           <dbl>    <dbl>    <dbl>     <dbl>
 1 2018-06-22 Summer No Holiday      34079      0        0       24.7 
 2 2018-04-07 Spring No Holiday      11159      0.2      0        4.21
 3 2018-03-15 Spring No Holiday       6227     27        0       13   
 4 2018-10-11 Autumn No Holiday      24526      0        0        9.68
 5 2018-08-30 Summer No Holiday      20959      9.5      0       25.4 
 6 2017-12-07 Winter No Holiday       8549      0       10.4      1.09
 7 2018-05-31 Spring No Holiday      31681      0        0       20.5 
 8 2018-09-01 Autumn No Holiday      26010      0        0       25.5 
 9 2018-04-17 Spring No Holiday      22234      0        0       12.8 
10 2018-04-24 Spring No Holiday      20144      3        0       12.2 
# ℹ 19 more rows
# ℹ 5 more variables: mean_humidity <dbl>, mean_wind_speed <dbl>,
#   mean_visibility <dbl>, mean_dew_point <dbl>, mean_solar_rad <dbl>
…
# view results
bike_recipe_1 |> 
  prep(training = bike_train) |> 
  bake(bike_train)

# A tibble: 263 × 14
   rainfall snowfall mean_temp mean_humidity mean_wind_speed mean_visibility
      <dbl>    <dbl>     <dbl>         <dbl>           <dbl>           <dbl>
 1   -0.309   -0.210     1.08          0.217          -0.883          0.773 
 2   -0.309   -0.210     1.04         -0.224          -0.386          1.09  
 3    2.64    -0.210     0.924         1.61           -1.13           0.0873
 4   -0.309   -0.210     0.944         0.256           1.29           1.01  
 5   -0.309   -0.210     0.762        -0.612          -0.113          1.07  
 6   -0.309   -0.210     0.784        -0.560          -0.841          1.10  
 7   -0.309   -0.210     0.751        -0.659          -0.435          1.10  
 8   -0.309   -0.210     0.833        -0.397          -0.694          1.08  
 9   -0.309   -0.210     0.911         0.289          -0.855          1.07  
10   -0.266   -0.210     0.912         0.614          -0.722          1.01  
# ℹ 253 more rows
# ℹ 8 more variables: mean_dew_point <dbl>, mean_solar_rad <dbl>,
#   bike_count <dbl>, season_Spring <dbl>, season_Summer <dbl>,
#   season_Winter <dbl>, holiday_No.Holiday <dbl>, day_type_Weekend <dbl>
…
# view results
bike_recipe_2 |> 
  prep(training = bike_train) |> 
  bake(bike_train)

# A tibble: 263 × 21
   rainfall snowfall mean_temp mean_humidity mean_wind_speed mean_visibility
      <dbl>    <dbl>     <dbl>         <dbl>           <dbl>           <dbl>
 1   -0.309   -0.210     1.08          0.217          -0.883          0.773 
 2   -0.309   -0.210     1.04         -0.224          -0.386          1.09  
 3    2.64    -0.210     0.924         1.61           -1.13           0.0873
 4   -0.309   -0.210     0.944         0.256           1.29           1.01  
 5   -0.309   -0.210     0.762        -0.612          -0.113          1.07  
 6   -0.309   -0.210     0.784        -0.560          -0.841          1.10  
 7   -0.309   -0.210     0.751        -0.659          -0.435          1.10  
 8   -0.309   -0.210     0.833        -0.397          -0.694          1.08  
 9   -0.309   -0.210     0.911         0.289          -0.855          1.07  
10   -0.266   -0.210     0.912         0.614          -0.722          1.01  
# ℹ 253 more rows
# ℹ 15 more variables: mean_dew_point <dbl>, mean_solar_rad <dbl>,
#   bike_count <dbl>, season_Spring <dbl>, season_Summer <dbl>,
#   season_Winter <dbl>, holiday_No.Holiday <dbl>, day_type_Weekend <dbl>,
#   season_Spring_x_holiday_No.Holiday <dbl>,
#   season_Summer_x_holiday_No.Holiday <dbl>,
#   season_Winter_x_holiday_No.Holiday <dbl>, …
…
# view results
bike_recipe_3 |> 
  prep(training = bike_train) |> 
  bake(bike_train)

# A tibble: 263 × 29
   bike_count season_Spring season_Summer season_Winter holiday_No.Holiday
        <dbl>         <dbl>         <dbl>         <dbl>              <dbl>
 1      0.896             0             0             0                  1
 2      0.985             0             0             0                  1
 3     -0.662             0             0             0                  1
 4      1.42              0             0             0                  1
 5      1.29              0             0             0                  1
 6      1.14              0             0             0                  1
 7      1.48              0             0             0                  1
 8      1.49              0             0             0                  1
 9      1.41              0             0             0                  1
10      1.12              0             0             0                  1
# ℹ 253 more rows
# ℹ 24 more variables: day_type_Weekend <dbl>, rainfall_poly_1 <dbl>,
#   rainfall_poly_2 <dbl>, snowfall_poly_1 <dbl>, snowfall_poly_2 <dbl>,
#   mean_temp_poly_1 <dbl>, mean_temp_poly_2 <dbl>, mean_humidity_poly_1 <dbl>,
#   mean_humidity_poly_2 <dbl>, mean_wind_speed_poly_1 <dbl>,
#   mean_wind_speed_poly_2 <dbl>, mean_dew_point_poly_1 <dbl>,
#   mean_dew_point_poly_2 <dbl>, mean_solar_rad_poly_1 <dbl>, …
…
# A tibble: 2 × 4
  .metric .estimator .estimate .config        
  <chr>   <chr>          <dbl> <chr>          
1 rmse    standard       0.296 pre0_mod0_post0
2 rsq     standard       0.925 pre0_mod0_post0

# view the final model coefficient table
bike_fit |> 
  extract_fit_parsnip() |> 
 tidy()

# A tibble: 29 × 5
   term               estimate std.error statistic      p.value
   <chr>                 <dbl>     <dbl>     <dbl>        <dbl>
 1 (Intercept)          -0.161    0.173     -0.929 0.354       
 2 season_Spring         0.268    0.339      0.790 0.430       
 3 season_Summer         1.39     0.406      3.41  0.000757    
 4 season_Winter        -0.997    0.306     -3.26  0.00130     
 5 holiday_No.Holiday    0.586    0.156      3.77  0.000206    
 6 day_type_Weekend     -0.240    0.0413    -5.81  0.0000000206
 7 rainfall_poly_1      -2.99     0.863     -3.46  0.000634    
 8 rainfall_poly_2       1.50     0.394      3.81  0.000176    
 9 snowfall_poly_1      -0.255    0.335     -0.762 0.447       
10 snowfall_poly_2      -0.200    0.322     -0.622 0.535       
# ℹ 19 more rows
…
